<svg xmlns="http://www.w3.org/2000/svg" viewBox="0 0 44 45" width="44" height="45">
	<style>
		tspan { white-space:pre }
		.shp0 { fill: #ffffff } 
	</style>
	<g id="FOOTER">
		<g id="FOOTER-SOCIAL">
			<path id="Shape 2" class="shp0" d="M22 45C9.91 45 0.1 34.92 0.1 22.5C0.1 10.07 9.91 0 22 0C34.09 0 43.9 10.07 43.9 22.5C43.9 34.92 34.09 45 22 45ZM37.47 12.65C36.33 13.17 35.1 13.52 33.81 13.67C35.13 12.87 36.14 11.59 36.61 10.07C35.38 10.82 34.02 11.36 32.56 11.65C31.4 10.38 29.74 9.59 27.9 9.59C24.38 9.59 21.52 12.51 21.52 16.11C21.52 16.62 21.58 17.12 21.69 17.59C16.38 17.32 11.68 14.73 8.54 10.79C7.99 11.75 7.67 12.87 7.67 14.06C7.67 16.32 8.8 18.32 10.51 19.48C9.46 19.45 8.48 19.16 7.62 18.67C7.62 18.7 7.62 18.72 7.62 18.75C7.62 21.91 9.82 24.54 12.74 25.14C12.2 25.29 11.64 25.37 11.06 25.37C10.65 25.37 10.25 25.33 9.86 25.25C10.67 27.84 13.03 29.72 15.82 29.77C13.63 31.52 10.88 32.56 7.89 32.56C7.38 32.56 6.87 32.53 6.37 32.47C9.19 34.32 12.55 35.4 16.15 35.4C27.89 35.4 34.31 25.47 34.31 16.86C34.31 16.58 34.3 16.3 34.29 16.02C35.54 15.1 36.62 13.96 37.47 12.65L37.47 12.65Z" />
		</g>
	</g>
</svg>