{
    "categoryPromotionalBarMenu": [
        {
            "name": "Dog",
            "link": "/dog.html"
        },
        {
            "name": "Cat",
            "link": "/cat-html.html"
        },
        {
            "name": "Small Pet",
            "link": "/small-pe.html"
        },
        {
            "name": "Bird",
            "link": "/bird-wildlife.html"
        },
        {
            "name": "Fish",
            "link": "/fis.html"
        },
        {
            "name": "Reptile",
            "link": "/reptile.html"
        },
        {
            "name": "Advice",
            "link": "/offers.html"
        }
    ]
}