[
  {
    "name": "Our favorite brands",
    "brands_list": [
      {
        "name": "Royal Canine",
        "image": "/assets/brand-logo/royal-canine.png",
        "link": "/dog.html"
      },
      {
        "name": "Pedigree",
        "image": "/assets/brand-logo/pedigree.png",
        "link": "/dog.html"
      },
      {
        "name": "Barking Heads",
        "image": "/assets/brand-logo/barking-heads.png",
        "link": "/dog.html"
      },
      {
        "name": "Balers",
        "image": "/assets/brand-logo/bakers.png",
        "link": "/dog.html"
      },
      {
        "name": "K9 Optimum",
        "image": "/assets/brand-logo/k9-optimum.png",
        "link": "/dog.html"
      },
      {
        "name": "Natures Menu",
        "image": "/assets/brand-logo/natures-menu.png",
        "link": "/dog.html"
      },
      {
        "name": "Felix",
        "image": "/assets/brand-logo/felix.png",
        "link": "/dog.html"
      },
      {
        "name": "Natures Menu",
        "image": "/assets/brand-logo/natures-menu.png",
        "link": "/dog.html"
      },
      {
        "name": "Felix",
        "image": "/assets/brand-logo/felix.png",
        "link": "/dog.html"
      }
    ]
  }
]
  