{
  "productContent": [
    {
      "title": "Product description",
      "description": "<p>K9 Optimum Adult is a daily diet specifically formulated to provide a delicious, nutritionally balanced, dry food which significantly contributes to your dog’s development and long-term health.</p> <p>K9 Optimum Adult is a daily diet specifically formulated to provide a delicious, nutritionally balanced, dry food which significantly contributes to your dog’s development and long-term health.</p> <p>K9 Optimum Adult is a daily diet specifically formulated to provide a delicious, nutritionally balanced, dry food which significantly contributes to your dog’s development and long-term health.</p>" 
    }
  ],
  "benefitsTitle" : [
    {
      "title" : "Benefits"
    }
  ],
  "benefits": [
    {
      "description": "Contains 30% Freshly Prepared Ingredients Steam Cooked to Aid Digestibility"
    },
    {
      "description": "Omega 3 & 6 Oils to Help Maintain Healthy Skin & Coat"
    },
    {
      "description": "Helps Maintain Bone and Joint Health"
    },
    {
      "description": "Immune System Support"
    },
    {
      "description": "No Added Wheat, Wheat Gluten or Soya"
    }
  ],
  "productDetailsFeature": [
      {
        "title": "Brand",
        "value": "K9"
      },
      {
        "title": "Country of origin",
        "value": "United Kingdom"
      },
      {
        "title": "Weight",
        "value": "15kg"
      },
      {
        "title": "Primary flavour",
        "value": "Chicken"
      },
      {
        "title": "Secondary flavour",
        "value": "Rice"
      },
      {
        "title": "Breed size",
        "value": "Any"
      },
      {
        "title": "Lifestage",
        "value": "Adult"
      }
  ],
  "productDetailsNotes" : [
    {
      "notes" : "<p> Product information correct at time of publication </p>"
    }
  ]
}
