[
  {
    "name": "Store image",
    "image": "/assets/store-photo.jpg",
    "description": "Description of the store image"
  },
  {
    "name": "Store image",
    "image": "/assets/store-photo.jpg",
    "description": "Description of the store image"
  },
  {
    "name": "Store image",
    "image": "/assets/store-photo.jpg",
    "description": "Description of the store image"
  },
  {
    "name": "Store image",
    "image": "/assets/store-photo.jpg",
    "description": "Description of the store image"
  },
  {
    "name": "Store image",
    "image": "/assets/store-photo.jpg",
    "description": "Description of the store image"
  },
  {
    "name": "Store image",
    "image": "/assets/store-photo.jpg",
    "description": "Description of the store image"
  },
  {
    "name": "Store image",
    "image": "/assets/store-photo.jpg",
    "description": "Description of the store image"
  },
  {
    "name": "Store image",
    "image": "/assets/store-photo.jpg",
    "description": "Description of the store image"
  },
  {
    "name": "Store image",
    "image": "/assets/store-photo.jpg",
    "description": "Description of the store image"
  },
  {
    "name": "Store image",
    "image": "/assets/store-photo.jpg",
    "description": "Description of the store image"
  },
  {
    "name": "Store image",
    "image": "/assets/store-photo.jpg",
    "description": "Description of the store image"
  },
  {
    "name": "Store image",
    "image": "/assets/store-photo.jpg",
    "description": "Description of the store image"
  },
  {
    "name": "Store image",
    "image": "/assets/store-photo.jpg",
    "description": "Description of the store image"
  },
  {
    "name": "Store image",
    "image": "/assets/store-photo.jpg",
    "description": "Description of the store image"
  },
  {
    "name": "Store image",
    "image": "/assets/store-photo.jpg",
    "description": "Description of the store image"
  }
]
